…
``` r
library(buoydata)
```

All of the buoys hosted by the NDBC (and available on ERDDAP) can be
quickly viewed from the bundled data set
[buoy_data](https://noaa-edab.github.io/buoydata/reference/buoy_data.md)
which along with the buoys ID, NAME, LAT and LON contain other metadata
such as the years of operation, the date/time of the last recorded
measurement, and the owners of the buoy

``` r
buoydata::buoy_data |> 
  dplyr::as_tibble()
#> # A tibble: 1,326 × 17
#>    ID       Y1    YN nYEARS lastMeasurement        LAT    LON STATION_LOC  TTYPE
#>    <chr> <dbl> <dbl>  <int> <dttm>               <dbl>  <dbl> <chr>        <chr>
#>  1 0Y2W3  2012  2015      4 2015-08-18 11:40:00  44.8   -87.3 "Sturgeon B… Weat…
#>  2 18CI3  2014  2015      2 2015-09-21 13:25:00  41.7   -86.9 "Michigan C… Weat…
#>  3 20CM4  2014  2015      2 2015-09-20 16:55:00  42.1   -86.5 "St. Joseph… Weat…
#>  4 23020  2008  2010      3 2010-12-18 11:50:00  22.2    38.5 "Red Sea"    Buoy 
#>  5 31201  2005  2005      1 2005-08-19 15:00:00 -27.7   -48.1 "Floripa, B… Wave…
#>  6 32012  2007  2018     12 2018-04-09 11:50:00 -19.6   -85.4 "Woods Hole… 2.4-…
#>  7 32301  1984  1986      3 1986-07-12 16:00:00  -9.9  -105.  ""           3-me…
#>  8 32302  1986  1995     10 1995-04-03 12:00:00 -18     -85.1 ""           3-me…
#>  9 32487  2008  2010      3 2010-01-08 20:25:00   3.52  -77.7 "Buenaventu… Offs…
#> 10 32488  2008  2009      2 2009-10-16 02:10:00   6.26  -77.5 "Bahia Sola… Offs…
#> # ℹ 1,316 more rows
#> # ℹ 8 more variables: TIMEZONE <chr>, OWNER <chr>, OWNERNAME <chr>,
#> #   COUNTRY <chr>, HULL <chr>, PAYLOAD <chr>, FORECAST <chr>, NOTE <chr>
```
…
